CMSC320-Final-Tutorial-Project
…
## [1] "49638-09-19 20:59:30 UTC" "49434-12-10 00:11:02 UTC"
## [3] "49641-04-10 06:28:30 UTC" "49640-11-27 00:26:36 UTC"
## [5] "49647-06-07 04:48:19 UTC" "49555-12-19 13:48:52 UTC"

As you can see, we now have a column which stores the date of the match in a much more human-friendly format. We create a new column with the mutate() function, and pass as its values the parsed times; this parsing is done with the as_datetime() method brought to us by the lubridate package.

Another way we can prepare the dataset for more optimized analysis, is by converting the match duration from seconds to minutes. We will create a new column with the converted duration.

lol <- lol %>%
  mutate("durationMin" = lol$gameDuration / 60)

lol

## # A tibble: 51,490 x 63
##    gameId creationTime gameDuration seasonId winner firstBlood firstTower
##     <dbl>        <dbl>        <dbl>    <dbl>  <dbl>      <dbl>      <dbl>
##  1 3.33e9      1.50e12         1949        9      1          2          1
##  2 3.23e9      1.50e12         1851        9      1          1          1
##  3 3.33e9      1.50e12         1493        9      1          2          1
##  4 3.33e9      1.50e12         1758        9      1          1          1
##  5 3.33e9      1.50e12         2094        9      1          2          1
##  6 3.29e9      1.50e12         2059        9      1          2          2
##  7 3.31e9      1.50e12         1993        9      1          1          2
##  8 3.33e9      1.50e12         1334        9      1          1          1
##  9 3.32e9      1.50e12         1387        9      2          2          2
## 10 3.33e9      1.50e12         2681        9      2          2          2
## # ... with 51,480 more rows, and 56 more variables: firstInhibitor <dbl>,
## #   firstBaron <dbl>, firstDragon <dbl>, firstRiftHerald <dbl>,
## #   t1_champ1id <dbl>, t1_champ1_sum1 <dbl>, t1_champ1_sum2 <dbl>,
## #   t1_champ2id <dbl>, t1_champ2_sum1 <dbl>, t1_champ2_sum2 <dbl>,
## #   t1_champ3id <dbl>, t1_champ3_sum1 <dbl>, t1_champ3_sum2 <dbl>,
## #   t1_champ4id <dbl>, t1_champ4_sum1 <dbl>, t1_champ4_sum2 <dbl>,
## #   t1_champ5id <dbl>, t1_champ5_sum1 <dbl>, t1_champ5_sum2 <dbl>,
## #   t1_towerKills <dbl>, t1_inhibitorKills <dbl>, t1_baronKills <dbl>,
## #   t1_dragonKills <dbl>, t1_riftHeraldKills <dbl>, t1_ban1 <dbl>,
…
Equation for multiple logistic regression.

p(x) represents the probability of the outcome to happen (1). In our case this would be team 2 winning. The x_is represent the value of each predictor used. For us, this could be which team got first blood or the total number of towers a certain team has destroyed. The beta values are the coefficients to the predictors. These make up our model. To learn more about logistic regression, please visit this link: http://www.hcbravo.org/IntroDataSci/bookdown-notes/linear-models-for-classification.html

Our dataframe in its current state wont work for logistic regression. The range winner attribute is not contained within 0 and 1 (binomial random variable). To clean this data for logistic regression, we should first remove the entries that have winner value equal to 0 (tie) as it has no meaning in determining a winner. This can be dont with the dplyr filter function. After removing these entries, our entries have the values of either 1 or 2, which does not fit within 0 and 1. We should map 0 to 1, and 1 to 2. This can simply be done by subtracting 1 from all values. Use the mutate function.

log_lol <- lol %>% 
  filter(winner > 0) %>%
  mutate(winner = winner-1)

head(log_lol, 50)

## # A tibble: 50 x 63
##    gameId creationTime gameDuration seasonId winner firstBlood firstTower
##     <dbl>        <dbl>        <dbl>    <dbl>  <dbl>      <dbl>      <dbl>
##  1 3.33e9      1.50e12         1949        9      0          2          1
##  2 3.23e9      1.50e12         1851        9      0          1          1
##  3 3.33e9      1.50e12         1493        9      0          2          1
##  4 3.33e9      1.50e12         1758        9      0          1          1
##  5 3.33e9      1.50e12         2094        9      0          2          1
##  6 3.29e9      1.50e12         2059        9      0          2          2
##  7 3.31e9      1.50e12         1993        9      0          1          2
##  8 3.33e9      1.50e12         1334        9      0          1          1
##  9 3.32e9      1.50e12         1387        9      1          2          2
## 10 3.33e9      1.50e12         2681        9      1          2          2
## # ... with 40 more rows, and 56 more variables: firstInhibitor <dbl>,
## #   firstBaron <dbl>, firstDragon <dbl>, firstRiftHerald <dbl>,
## #   t1_champ1id <dbl>, t1_champ1_sum1 <dbl>, t1_champ1_sum2 <dbl>,
## #   t1_champ2id <dbl>, t1_champ2_sum1 <dbl>, t1_champ2_sum2 <dbl>,
## #   t1_champ3id <dbl>, t1_champ3_sum1 <dbl>, t1_champ3_sum2 <dbl>,
## #   t1_champ4id <dbl>, t1_champ4_sum1 <dbl>, t1_champ4_sum2 <dbl>,
## #   t1_champ5id <dbl>, t1_champ5_sum1 <dbl>, t1_champ5_sum2 <dbl>,
## #   t1_towerKills <dbl>, t1_inhibitorKills <dbl>, t1_baronKills <dbl>,
## #   t1_dragonKills <dbl>, t1_riftHeraldKills <dbl>, t1_ban1 <dbl>,
…
